{
    "id": "gnss_scint_san0p_PT1M",
    "description": "GNSS scintillation for the san0p station",
    "timeStampLocation": "begin",
    "resourceURL": "http://eswua.ingv.it/",
    "resourceID": "INGV ESWUA",
    "contact": "",
    "contactID": "",
    "parameters": [
        {
            "name": "time",
            "type": "isotime",
            "units": "UTC",
            "fill": "",
            "description": "Time",
            "label": "",
            "key": true
        },
        {
            "name": "phi60l1slant_max",
            "type": "double",
            "units": "",
            "fill": null,
            "description": "Maximum phi60l1slant",
            "label": "",
            "key": false
        },
        {
            "name": "totals4l1_max",
            "type": "double",
            "units": "",
            "fill": null,
            "description": "Maximum totals4l1",
            "label": "",
            "key": false
        },
        {
            "name": "phi60l1slant_sats_mod",
            "type": "double",
            "units": "",
            "fill": null,
            "description": "Number of satellites measuring phi60l1slant over the mod threshold",
            "label": "",
            "key": false
        },
        {
            "name": "phi60l1slant_sats_sev",
            "type": "double",
            "units": "",
            "fill": null,
            "description": "Number of satellites measuring phi60l1slant over the sev threshold",
            "label": "",
            "key": false
        },
        {
            "name": "totals4l1_sats_mod",
            "type": "double",
            "units": "",
            "fill": null,
            "description": "Number of satellites measuring totals4l1 over the mod threshold",
            "label": "",
            "key": false
        },
        {
            "name": "totals4l1_sats_sev",
            "type": "double",
            "units": "",
            "fill": null,
            "description": "Number of satellites measuring totals4l1 over the sev threshold",
            "label": "",
            "key": false
        }
    ],
    "cadence": "PT1M",
    "x_relations": [
        {
            "id": "gnss_scint_san0p_PT5M",
            "description": "GNSS scintillation for the san0p station downsampled to 5 minutes",
            "cadence": "PT5M",
            "type": "resample",
            "method": "max",
            "add": "automatic"
        },
        {
            "id": "gnss_scint_san0p_PT30M",
            "description": "GNSS scintillation for the san0p station downsampled to 30 minutes",
            "cadence": "PT30M",
            "type": "resample",
            "method": "max",
            "add": "automatic"
        },
        {
            "id": "gnss_scint_san0p_PT3H",
            "description": "GNSS scintillation for the san0p station downsampled to 3 hours",
            "cadence": "PT3H",
            "type": "resample",
            "method": "max",
            "add": "automatic"
        },
        {
            "id": "gnss_scint_san0p_PT12H",
            "description": "GNSS scintillation for the san0p station downsampled to 12 hours",
            "cadence": "PT12H",
            "type": "resample",
            "method": "max",
            "add": "automatic"
        },
        {
            "id": "gnss_scint_san0p_P3D",
            "description": "GNSS scintillation for the san0p station downsampled to 3 days",
            "cadence": "P3D",
            "type": "resample",
            "method": "max",
            "add": "automatic"
        },
        {
            "id": "gnss_scint_san0p_P10D",
            "description": "GNSS scintillation for the san0p station downsampled to 10 days",
            "cadence": "P10D",
            "type": "resample",
            "method": "max",
            "add": "automatic"
        }
    ]
}
