{
    "id": "solar_wind_mag_combined_PT16S",
    "description": "Solar wind magnetic field from ACE or DSCOVR satellite",
    "timeStampLocation": "begin",
    "resourceURL": "",
    "resourceID": "",
    "contact": "",
    "contactID": "",
    "parameters": [
        {
            "name": "time",
            "type": "isotime",
            "units": "UTC",
            "fill": "",
            "description": "Time",
            "label": "",
            "key": true
        },
        {
            "name": "bt",
            "type": "double",
            "units": "nT",
            "fill": null,
            "description": "bt",
            "label": "",
            "key": false
        },
        {
            "name": "bx_gsm",
            "type": "double",
            "units": "nT",
            "fill": null,
            "description": "bx_gsm",
            "label": "",
            "key": false
        },
        {
            "name": "by_gsm",
            "type": "double",
            "units": "nT",
            "fill": null,
            "description": "by_gsm",
            "label": "",
            "key": false
        },
        {
            "name": "bz_gsm",
            "type": "double",
            "units": "nT",
            "fill": null,
            "description": "bz_gsm",
            "label": "",
            "key": false
        }
    ],
    "cadence": "PT16S",
    "x_relations": [
        {
            "id": "solar_wind_mag_combined_PT1M",
            "description": "Solar wind magnetic field from ACE or DSCOVR satellite downsampled to 1 minute",
            "cadence": "PT1M",
            "type": "resample",
            "method": "mean",
            "add": "automatic"
        },
        {
            "id": "solar_wind_mag_combined_PT5M",
            "description": "Solar wind magnetic field from ACE or DSCOVR satellite downsampled to 5 minutes",
            "cadence": "PT5M",
            "type": "resample",
            "method": "mean",
            "add": "automatic"
        },
        {
            "id": "solar_wind_mag_combined_PT30M",
            "description": "Solar wind magnetic field from ACE or DSCOVR satellite downsampled to 30 minutes",
            "cadence": "PT30M",
            "type": "resample",
            "method": "mean",
            "add": "automatic"
        },
        {
            "id": "solar_wind_mag_combined_PT3H",
            "description": "Solar wind magnetic field from ACE or DSCOVR satellite downsampled to 3 hours",
            "cadence": "PT3H",
            "type": "resample",
            "method": "mean",
            "add": "automatic"
        },
        {
            "id": "solar_wind_mag_combined_PT12H",
            "description": "Solar wind magnetic field from ACE or DSCOVR satellite downsampled to 12 hours",
            "cadence": "PT12H",
            "type": "resample",
            "method": "mean",
            "add": "automatic"
        },
        {
            "id": "solar_wind_mag_combined_P3D",
            "description": "Solar wind magnetic field from ACE or DSCOVR satellite downsampled to 3 days",
            "cadence": "P3D",
            "type": "resample",
            "method": "mean",
            "add": "automatic"
        },
        {
            "id": "solar_wind_mag_combined_P10D",
            "description": "Solar wind magnetic field from ACE or DSCOVR satellite downsampled to 10 days",
            "cadence": "P10D",
            "type": "resample",
            "method": "mean",
            "add": "automatic"
        }
    ]
}
