{
    "id": "wam_ipe_ne_swarmc_minmaxmean_PT1H40M",
    "description": "Electron density data from WAM-IPE along the Swarm C satellite track, aggregated",
    "timeStampLocation": "begin",
    "resourceURL": "",
    "resourceID": "ESA",
    "contact": "Eelco Doornbos",
    "contactID": "eelco.doornbos@knmi.nl",
    "parameters": [
        {
            "name": "time",
            "type": "isotime",
            "units": "UTC",
            "fill": "",
            "description": "Time",
            "label": "",
            "key": true
        },
        {
            "name": "electron_density_min",
            "type": "double",
            "units": "1/cm3",
            "fill": null,
            "description": "Minimum electron density",
            "label": "",
            "key": false
        },
        {
            "name": "electron_density_max",
            "type": "double",
            "units": "1/cm3",
            "fill": null,
            "description": "Maximum electron density",
            "label": "",
            "key": false
        },
        {
            "name": "electron_density_mean",
            "type": "double",
            "units": "1/cm3",
            "fill": null,
            "description": "Mean electron density",
            "label": "",
            "key": false
        }
    ],
    "cadence": "PT1H40M",
    "x_relations": [
        {
            "id": "wam_ipe_ne_swarmc_minmaxmean_PT3H",
            "description": "Electron density data from WAM-IPE along the Swarm C satellite track, aggregated downsampled to 3 hours",
            "cadence": "PT3H",
            "type": "resample",
            "method": "max",
            "add": "automatic"
        },
        {
            "id": "wam_ipe_ne_swarmc_minmaxmean_P1D",
            "description": "Electron density data from WAM-IPE along the Swarm C satellite track, aggregated downsampled to 1 day",
            "cadence": "P1D",
            "type": "resample",
            "method": "max",
            "add": "automatic"
        },
        {
            "id": "wam_ipe_ne_swarmc_minmaxmean_P3D",
            "description": "Electron density data from WAM-IPE along the Swarm C satellite track, aggregated downsampled to 3 days",
            "cadence": "P3D",
            "type": "resample",
            "method": "max",
            "add": "automatic"
        },
        {
            "id": "wam_ipe_ne_swarmc_minmaxmean_P15D",
            "description": "Electron density data from WAM-IPE along the Swarm C satellite track, aggregated downsampled to 15 days",
            "cadence": "P15D",
            "type": "resample",
            "method": "max",
            "add": "automatic"
        },
        {
            "id": "wam_ipe_ne_swarmc_minmaxmean_P27D",
            "description": "Electron density data from WAM-IPE along the Swarm C satellite track, aggregated downsampled to 27 days",
            "cadence": "P27D",
            "type": "resample",
            "method": "max",
            "add": "automatic"
        }
    ]
}
